[
    {
        "ParameterKey": "InstanceType",
        "ParameterValue": "t2.micro"
    },
    {
        "ParameterKey": "ClusterSize",
        "ParameterValue": "3"
    },
    {
        "ParameterKey": "MachineMetadata",
        "ParameterValue": "provider=aws,team=engineering,worker=private"
    },
    {
        "ParameterKey": "KeyPair",
        "ParameterValue": "ta-dev"
    },
    {
        "ParameterKey": "DiscoveryURL",
        "ParameterValue": "https://discovery.etcd.io/09e559710f9bc4f904020bde0225915c"
    }
]
